{
  "name": "",
  "css_prefix_text": "icon-",
  "css_use_suffix": false,
  "hinting": true,
  "units_per_em": 1000,
  "ascent": 850,
  "glyphs": [
    {
      "uid": "9bd60140934a1eb9236fd7a8ab1ff6ba",
      "css": "spin",
      "code": 59398,
      "src": "fontelico"
    },
    {
      "uid": "8b80d36d4ef43889db10bc1f0dc9a862",
      "css": "user",
      "code": 59394,
      "src": "fontawesome"
    },
    {
      "uid": "d7271d490b71df4311e32cdacae8b331",
      "css": "home-1",
      "code": 59393,
      "src": "fontawesome"
    },
    {
      "uid": "f48ae54adfb27d8ada53d0fd9e34ee10",
      "css": "trash",
      "code": 59402,
      "src": "fontawesome"
    },
    {
      "uid": "1c4068ed75209e21af36017df8871802",
      "css": "down",
      "code": 59404,
      "src": "fontawesome"
    },
    {
      "uid": "95376bf082bfec6ce06ea1cda7bd7ead",
      "css": "up",
      "code": 59403,
      "src": "fontawesome"
    },
    {
      "uid": "70370693ada58ef0a60fa0984fe8d52a",
      "css": "plus",
      "code": 59400,
      "src": "entypo"
    },
    {
      "uid": "63b86fedd4ee9ad2105f54f4888e7088",
      "css": "info",
      "code": 59395,
      "src": "entypo"
    },
    {
      "uid": "513ac180ff85bd275f2b736720cbbf5e",
      "css": "home",
      "code": 59392,
      "src": "entypo"
    },
    {
      "uid": "5308d824454af8ec7835786e272361a9",
      "css": "back",
      "code": 59401,
      "src": "entypo"
    },
    {
      "uid": "3a6f0140c3a390bdb203f56d1bfdefcb",
      "css": "speed",
      "code": 59397,
      "src": "entypo"
    },
    {
      "uid": "4338ab07af9a5bd3a7bd8984047cb018",
      "css": "control",
      "code": 59399,
      "src": "iconic"
    },
    {
      "uid": "s51at1xi1fkaomxvp6dqaax5jmyhtn4h",
      "css": "shopping-cart",
      "code": 59396,
      "src": "modernpics"
    }
  ]
}