{
    "id": 1,
    "jsonrpc": "2.0",
    "total": 50,
    "items": [
        {
            "id": 0,
            "guid": "6f18b173-121f-48bb-8156-f7f83b3e491c",
            "price": "332.00",
            "img": "http://placehold.it/300x200",
            "title": "commodo aliqua",
            "desc": [
                "Lorem ad et sint id officia."
            ],
            "count": 282,
            "tags": [
                "reprehenderit",
                "consectetur",
                "ipsum"
            ],
            "category": "accessories"
        },
        {
            "id": 1,
            "guid": "239dcc42-375e-4a02-ab8b-62a7fea51eb0",
            "price": "366.00",
            "img": "http://placehold.it/300x200",
            "title": "dolor dolore",
            "desc": [
                "Sit tempor exercitation magna et sint ad incididunt non cillum Lorem consequat sint non.",
                "Incididunt eiusmod laborum officia Lorem magna non quis amet fugiat.",
                "Labore irure culpa deserunt elit laboris cillum proident cillum ipsum adipisicing nostrud adipisicing officia."
            ],
            "count": 260,
            "tags": [
                "sunt",
                "deserunt"
            ],
            "category": "blades"
        },
        {
            "id": 2,
            "guid": "4fdbbadf-d9f2-4f3b-b14d-ed14860a9ec9",
            "price": "135.00",
            "img": "http://placehold.it/300x200",
            "title": "aliquip fugiat",
            "desc": [
                "Esse dolor labore deserunt consectetur ad ea incididunt mollit.",
                "Lorem sunt do laborum elit ex minim anim esse et do officia dolore culpa et.",
                "Do veniam anim laborum consectetur consequat officia fugiat eiusmod.",
                "Velit sit non enim velit nisi amet aute dolor tempor.",
                "Laborum qui non proident dolor aute ea incididunt cupidatat cillum."
            ],
            "count": 249,
            "tags": [
                "nisi",
                "consequat",
                "proident",
                "sunt"
            ],
            "category": "sets"
        },
        {
            "id": 3,
            "guid": "cc4a7987-a2d6-45c8-847e-db6f22305a9b",
            "price": "55.00",
            "img": "http://placehold.it/300x200",
            "title": "eiusmod veniam",
            "desc": [
                "Enim enim amet veniam cupidatat eu.",
                "Laborum culpa adipisicing cupidatat eiusmod dolore quis.",
                "Deserunt sit cupidatat dolor deserunt nostrud eu incididunt amet sunt in.",
                "Ipsum deserunt duis tempor eu dolor laboris commodo enim ipsum enim est.",
                "Tempor eiusmod aliqua qui nisi amet laboris ipsum voluptate commodo eu duis veniam ut laboris."
            ],
            "count": 227,
            "tags": [
                "velit",
                "laboris",
                "proident",
                "officia"
            ],
            "category": "accessories"
        },
        {
            "id": 4,
            "guid": "bee04bcb-efce-4da8-aea5-0708f9847524",
            "price": "350.00",
            "img": "http://placehold.it/300x200",
            "title": "cillum deserunt",
            "desc": [
                "Sint eiusmod in qui laborum velit laborum deserunt.",
                "Dolore dolore laborum et pariatur nisi consectetur quis aliquip sit esse ipsum amet Lorem.",
                "Minim minim duis ea qui aute ut.",
                "Aute sit Lorem nisi labore aliquip sunt nostrud velit amet eiusmod consequat ut pariatur.",
                "Nostrud nostrud tempor enim sint excepteur eu velit ipsum cupidatat laborum nisi aliquip."
            ],
            "count": 53,
            "tags": [
                "aliqua",
                "esse",
                "labore",
                "exercitation"
            ],
            "category": "pads"
        },
        {
            "id": 5,
            "guid": "88aa1ace-bc0e-4174-ac95-57a70ef97f10",
            "price": "153.00",
            "img": "http://placehold.it/300x200",
            "title": "do consectetur",
            "desc": [
                "Aliqua adipisicing eiusmod minim duis culpa pariatur excepteur duis ipsum."
            ],
            "count": 3,
            "tags": [
                "proident",
                "exercitation",
                "duis"
            ],
            "category": "tables"
        },
        {
            "id": 6,
            "guid": "06ec5607-d383-42c9-9cf5-2974752ddce1",
            "price": "73.00",
            "img": "http://placehold.it/300x200",
            "title": "officia aute",
            "desc": [
                "In qui consequat labore ipsum enim ullamco cillum consequat.",
                "Labore quis id elit ut elit."
            ],
            "count": 215,
            "tags": [
                "anim",
                "eiusmod"
            ],
            "category": "accessories"
        },
        {
            "id": 7,
            "guid": "a1d5aa74-1a96-4d98-94ca-057da7f19310",
            "price": "353.00",
            "img": "http://placehold.it/300x200",
            "title": "mollit reprehenderit",
            "desc": [
                "Laborum eu labore proident eiusmod aliquip mollit consequat magna do eiusmod dolor laborum duis.",
                "Nulla est aliqua officia magna est elit.",
                "Ullamco eu qui nulla est ut dolor reprehenderit anim consectetur velit.",
                "Cupidatat velit consequat nulla cillum."
            ],
            "count": 46,
            "tags": [
                "occaecat",
                "enim"
            ],
            "category": "rubbers"
        },
        {
            "id": 8,
            "guid": "339d610f-c252-43ed-8130-c7dc1a3d8e84",
            "price": "313.00",
            "img": "http://placehold.it/300x200",
            "title": "dolor esse",
            "desc": [
                "Reprehenderit culpa esse ex labore ut minim consectetur.",
                "Ea ad aute ea do culpa incididunt culpa esse dolor.",
                "Dolor est nulla enim esse voluptate.",
                "Est voluptate duis tempor laborum.",
                "Aute aliquip deserunt culpa consectetur."
            ],
            "count": 73,
            "tags": [
                "pariatur",
                "minim",
                "duis",
                "ad"
            ],
            "category": "rubbers"
        },
        {
            "id": 9,
            "guid": "3bb40920-cfa9-4748-9ac1-ee4f3125a09b",
            "price": "98.00",
            "img": "http://placehold.it/300x200",
            "title": "consectetur sint",
            "desc": [
                "Eu fugiat duis commodo aute qui tempor eiusmod anim ex.",
                "Est duis culpa labore ipsum laboris dolor id laborum laboris ad veniam do in amet."
            ],
            "count": 38,
            "tags": [
                "ipsum",
                "veniam"
            ],
            "category": "accessories"
        },
        {
            "id": 10,
            "guid": "dfb78435-87b5-4e0b-85ea-09eb5122ccb3",
            "price": "247.00",
            "img": "http://placehold.it/300x200",
            "title": "minim irure",
            "desc": [
                "Dolore ullamco minim minim veniam ut elit ad est nulla nisi exercitation.",
                "Irure commodo nulla labore incididunt quis irure fugiat qui ullamco non qui pariatur.",
                "Cillum quis culpa consequat consequat minim fugiat adipisicing labore eiusmod enim sint excepteur adipisicing."
            ],
            "count": 153,
            "tags": [
                "sit"
            ],
            "category": "balls"
        },
        {
            "id": 11,
            "guid": "2da28864-d269-43f8-b356-34362c7e07d1",
            "price": "10.00",
            "img": "http://placehold.it/300x200",
            "title": "adipisicing commodo",
            "desc": [
                "Eiusmod ex commodo non deserunt ex reprehenderit officia cillum nostrud ut voluptate.",
                "Irure reprehenderit duis ad Lorem incididunt proident Lorem qui.",
                "Voluptate consectetur anim ut officia excepteur non nulla do Lorem est tempor.",
                "Ad deserunt fugiat aute Lorem mollit consectetur quis irure velit.",
                "Minim consectetur voluptate proident sunt ex duis et labore ullamco pariatur in."
            ],
            "count": 51,
            "tags": [
                "tempor",
                "adipisicing",
                "reprehenderit"
            ],
            "category": "sets"
        },
        {
            "id": 12,
            "guid": "18d1acb0-c5b9-4820-bfd1-c68b18a3ee68",
            "price": "367.00",
            "img": "http://placehold.it/300x200",
            "title": "veniam irure",
            "desc": [
                "Dolor exercitation consequat do amet est aliqua id qui non non."
            ],
            "count": 115,
            "tags": [
                "amet",
                "labore",
                "reprehenderit"
            ],
            "category": "sets"
        },
        {
            "id": 13,
            "guid": "92d642f0-ef04-414b-a808-3f8819c636e2",
            "price": "396.00",
            "img": "http://placehold.it/300x200",
            "title": "ullamco nulla",
            "desc": [
                "Duis dolore tempor in irure id duis reprehenderit cupidatat aliqua exercitation adipisicing sit do.",
                "Enim aliquip veniam sunt est eiusmod amet excepteur veniam aliquip.",
                "Pariatur nulla qui anim officia incididunt aliquip minim quis aliqua.",
                "Ut ut commodo dolor nisi aute."
            ],
            "count": 6,
            "tags": [
                "duis"
            ],
            "category": "blades"
        },
        {
            "id": 14,
            "guid": "89a2a15e-ed28-4013-a73a-92f72ee0e122",
            "price": "87.00",
            "img": "http://placehold.it/300x200",
            "title": "ipsum ea",
            "desc": [
                "Dolore sint sint do qui.",
                "Laborum ipsum tempor et nostrud minim est deserunt pariatur ipsum velit minim laborum anim minim."
            ],
            "count": 298,
            "tags": [
                "eiusmod"
            ],
            "category": "balls"
        },
        {
            "id": 15,
            "guid": "017a12e1-cc07-4bd2-ab23-fd9f5088a7ed",
            "price": "354.00",
            "img": "http://placehold.it/300x200",
            "title": "do culpa",
            "desc": [
                "Ex laborum tempor laborum qui.",
                "Eu deserunt voluptate quis culpa minim exercitation.",
                "Occaecat nostrud labore adipisicing aliqua pariatur reprehenderit."
            ],
            "count": 70,
            "tags": [
                "labore",
                "cupidatat",
                "Lorem",
                "enim",
                "tempor"
            ],
            "category": "sets"
        },
        {
            "id": 16,
            "guid": "cd9fc1dc-29a9-4dd0-9852-ed23bca4c849",
            "price": "384.00",
            "img": "http://placehold.it/300x200",
            "title": "officia consequat",
            "desc": [
                "Tempor consectetur ut voluptate et eu nulla laborum.",
                "Labore qui dolor quis eu do reprehenderit duis laboris id nulla Lorem.",
                "Ea irure nisi dolor dolore excepteur labore anim proident est cillum et ea.",
                "Proident tempor culpa commodo anim eiusmod occaecat culpa."
            ],
            "count": 152,
            "tags": [
                "aute",
                "nulla",
                "eiusmod",
                "aliqua"
            ],
            "category": "accessories"
        },
        {
            "id": 17,
            "guid": "c4ed52a0-f9e6-48c7-9951-aeac2eccd67e",
            "price": "173.00",
            "img": "http://placehold.it/300x200",
            "title": "reprehenderit dolore",
            "desc": [
                "Ad deserunt laboris laboris ea.",
                "Occaecat eiusmod cillum in irure ex labore mollit excepteur ipsum aute reprehenderit.",
                "Reprehenderit non aliquip commodo sit amet velit.",
                "Tempor occaecat enim adipisicing culpa cupidatat tempor proident non."
            ],
            "count": 105,
            "tags": [
                "pariatur",
                "aliquip",
                "do"
            ],
            "category": "balls"
        },
        {
            "id": 18,
            "guid": "3d235bbb-12fa-42fd-89f7-f098988e3d62",
            "price": "104.00",
            "img": "http://placehold.it/300x200",
            "title": "reprehenderit sunt",
            "desc": [
                "Consequat cillum officia cillum amet ex enim ea pariatur qui ex consectetur.",
                "Aliqua minim do cupidatat laborum sit amet reprehenderit aute dolore quis ex."
            ],
            "count": 300,
            "tags": [
                "ipsum",
                "est",
                "non",
                "adipisicing"
            ],
            "category": "pads"
        },
        {
            "id": 19,
            "guid": "63b50795-1eb0-4250-8132-1b7ec1900ea4",
            "price": "323.00",
            "img": "http://placehold.it/300x200",
            "title": "dolor amet",
            "desc": [
                "Incididunt aute ipsum nostrud laborum sunt consequat labore aliqua in nulla sint pariatur proident quis.",
                "Voluptate consequat officia mollit ea ex ut officia ad culpa aliquip sunt.",
                "Ut sit voluptate aliquip consectetur sunt dolor est pariatur reprehenderit.",
                "Consectetur proident aliquip anim nisi velit anim est."
            ],
            "count": 45,
            "tags": [
                "mollit",
                "ex"
            ],
            "category": "rubbers"
        },
        {
            "id": 20,
            "guid": "96987396-38a8-4eb9-b4d0-d452a644b09c",
            "price": "116.00",
            "img": "http://placehold.it/300x200",
            "title": "sit aliqua",
            "desc": [
                "Id deserunt do cupidatat tempor."
            ],
            "count": 81,
            "tags": [
                "dolore",
                "est",
                "incididunt"
            ],
            "category": "blades"
        },
        {
            "id": 21,
            "guid": "808f2c5b-27f1-440f-8e5d-403f0704ae59",
            "price": "129.00",
            "img": "http://placehold.it/300x200",
            "title": "eu mollit",
            "desc": [
                "Eu exercitation cillum consectetur est ullamco ipsum ad ad in.",
                "In magna in dolor eiusmod eiusmod."
            ],
            "count": 195,
            "tags": [
                "consequat",
                "reprehenderit",
                "elit",
                "anim"
            ],
            "category": "balls"
        },
        {
            "id": 22,
            "guid": "e3d3fcef-7c4d-4bde-8c1a-b6c25bf017e4",
            "price": "390.00",
            "img": "http://placehold.it/300x200",
            "title": "ea duis",
            "desc": [
                "Proident incididunt ipsum dolore fugiat sint anim reprehenderit.",
                "Ipsum non adipisicing exercitation consectetur do esse fugiat id id qui.",
                "Ea magna nisi anim ullamco reprehenderit cupidatat veniam magna irure commodo aute consequat excepteur aliquip.",
                "Cupidatat consectetur adipisicing voluptate ad officia id laborum duis.",
                "Voluptate irure nostrud dolore dolore non labore dolore culpa sint."
            ],
            "count": 122,
            "tags": [
                "duis",
                "ad",
                "ipsum",
                "laborum"
            ],
            "category": "sets"
        },
        {
            "id": 23,
            "guid": "af01f241-cedf-445d-bebe-91f194f0479a",
            "price": "279.00",
            "img": "http://placehold.it/300x200",
            "title": "mollit irure",
            "desc": [
                "Aute consectetur nostrud et velit anim incididunt.",
                "Esse nisi culpa eiusmod veniam officia non sit in culpa ad eu amet ullamco velit.",
                "Voluptate proident commodo ullamco fugiat eu eu cillum eiusmod excepteur ut.",
                "Eu in do ullamco consequat laboris commodo labore occaecat irure deserunt ipsum occaecat ut.",
                "Veniam commodo ipsum consequat anim sint voluptate nostrud consequat proident tempor nisi do aute incididunt."
            ],
            "count": 71,
            "tags": [
                "ipsum",
                "pariatur"
            ],
            "category": "balls"
        },
        {
            "id": 24,
            "guid": "a2cd7a40-99d4-4b2d-95c3-e43cc0bd655c",
            "price": "218.00",
            "img": "http://placehold.it/300x200",
            "title": "reprehenderit dolore",
            "desc": [
                "Eu mollit voluptate occaecat labore dolor ut dolore officia."
            ],
            "count": 172,
            "tags": [
                "do",
                "eu"
            ],
            "category": "sets"
        },
        {
            "id": 25,
            "guid": "4c8906d0-e807-41bf-a9a0-a93791950c6a",
            "price": "272.00",
            "img": "http://placehold.it/300x200",
            "title": "occaecat et",
            "desc": [
                "Adipisicing pariatur cillum ex irure excepteur consequat nulla culpa in ad non ad anim elit.",
                "Irure culpa nulla id exercitation do.",
                "Nisi duis irure consequat nulla deserunt excepteur dolor adipisicing sint adipisicing aliquip commodo."
            ],
            "count": 181,
            "tags": [
                "sunt",
                "officia",
                "veniam"
            ],
            "category": "sets"
        },
        {
            "id": 26,
            "guid": "8cfbfd90-f027-4b43-896e-1b5450b6b6e4",
            "price": "299.00",
            "img": "http://placehold.it/300x200",
            "title": "aliqua tempor",
            "desc": [
                "Ex do magna in laboris ut aute ullamco ut culpa laboris nulla pariatur dolor dolor.",
                "Pariatur nisi amet ipsum ipsum adipisicing Lorem eiusmod quis duis consectetur pariatur laborum.",
                "Eu in nisi est esse in mollit."
            ],
            "count": 76,
            "tags": [
                "aliquip",
                "ea",
                "duis",
                "sit"
            ],
            "category": "rubbers"
        },
        {
            "id": 27,
            "guid": "39dd42d8-9f1a-4b04-b5b7-5d9764a141af",
            "price": "264.00",
            "img": "http://placehold.it/300x200",
            "title": "minim ipsum",
            "desc": [
                "Cillum ullamco elit tempor ad aute sit sint ut."
            ],
            "count": 201,
            "tags": [
                "cupidatat",
                "sunt",
                "tempor"
            ],
            "category": "sets"
        },
        {
            "id": 28,
            "guid": "6260abd5-7198-4cfa-ae5a-6ddea759a5cf",
            "price": "311.00",
            "img": "http://placehold.it/300x200",
            "title": "veniam in",
            "desc": [
                "Officia labore incididunt aliqua ex commodo nisi ad eu nulla tempor quis ea elit.",
                "Qui et nulla ex sint irure aliqua.",
                "Lorem qui aliqua labore elit."
            ],
            "count": 27,
            "tags": [
                "ipsum",
                "est",
                "pariatur",
                "nisi",
                "ut"
            ],
            "category": "accessories"
        },
        {
            "id": 29,
            "guid": "55b9b8f5-b00b-4288-b0d0-77521936aa25",
            "price": "189.00",
            "img": "http://placehold.it/300x200",
            "title": "id voluptate",
            "desc": [
                "Amet ad dolor irure tempor irure proident veniam ex nostrud duis.",
                "Commodo ullamco aliqua dolore deserunt eu ad cillum duis nisi mollit consectetur.",
                "Elit consectetur deserunt quis aliqua eu.",
                "Adipisicing eu velit incididunt esse."
            ],
            "count": 290,
            "tags": [
                "nisi",
                "culpa",
                "est",
                "ad"
            ],
            "category": "accessories"
        },
        {
            "id": 30,
            "guid": "8b1d9432-c508-4783-b669-09fe7a379084",
            "price": "256.00",
            "img": "http://placehold.it/300x200",
            "title": "voluptate laborum",
            "desc": [
                "Sit laborum exercitation adipisicing quis labore ea enim sint cillum.",
                "Cupidatat nostrud consectetur velit laboris velit ex magna.",
                "Sit mollit consequat sit in.",
                "Reprehenderit exercitation anim esse ipsum nostrud cupidatat ad ea fugiat."
            ],
            "count": 228,
            "tags": [
                "aute",
                "esse",
                "aute"
            ],
            "category": "blades"
        },
        {
            "id": 31,
            "guid": "b1b41442-efb8-4c3c-aa60-8c2187427dd3",
            "price": "195.00",
            "img": "http://placehold.it/300x200",
            "title": "consectetur laborum",
            "desc": [
                "Sint laborum laboris est minim do ut consectetur nostrud pariatur cillum ullamco exercitation nostrud.",
                "Eu sunt ipsum in in officia."
            ],
            "count": 258,
            "tags": [
                "non",
                "velit",
                "in"
            ],
            "category": "pads"
        },
        {
            "id": 32,
            "guid": "98ca7744-c3c5-4a4c-860f-df2c49ecad0c",
            "price": "294.00",
            "img": "http://placehold.it/300x200",
            "title": "cillum commodo",
            "desc": [
                "Nulla eu nulla veniam quis sint cupidatat sit mollit veniam reprehenderit."
            ],
            "count": 271,
            "tags": [
                "quis",
                "sunt"
            ],
            "category": "balls"
        },
        {
            "id": 33,
            "guid": "646c06ca-ca11-4f1f-b161-f4360e2f5c46",
            "price": "380.00",
            "img": "http://placehold.it/300x200",
            "title": "velit labore",
            "desc": [
                "Voluptate quis nisi ea occaecat officia."
            ],
            "count": 53,
            "tags": [
                "elit",
                "ea"
            ],
            "category": "pads"
        },
        {
            "id": 34,
            "guid": "20eec600-2448-49b0-8604-7e7ab1acb54b",
            "price": "27.00",
            "img": "http://placehold.it/300x200",
            "title": "ullamco incididunt",
            "desc": [
                "Aliqua et duis minim cillum.",
                "Incididunt adipisicing mollit ex in.",
                "Ut consequat est et ullamco magna ea velit.",
                "Labore est esse ea duis id exercitation eu enim ullamco.",
                "Duis tempor pariatur excepteur ipsum."
            ],
            "count": 263,
            "tags": [
                "incididunt",
                "amet",
                "duis"
            ],
            "category": "rubbers"
        },
        {
            "id": 35,
            "guid": "f5631975-657f-4117-90e3-04b63a62e2be",
            "price": "106.00",
            "img": "http://placehold.it/300x200",
            "title": "aliquip laborum",
            "desc": [
                "Id officia ad officia enim amet.",
                "Exercitation cillum ex non proident velit deserunt.",
                "In aute officia ipsum minim ea irure adipisicing cupidatat aute adipisicing do elit minim.",
                "Aute dolore veniam exercitation amet et sit proident eu velit dolor reprehenderit duis sunt.",
                "Consectetur consectetur tempor reprehenderit aute cupidatat non elit eiusmod."
            ],
            "count": 164,
            "tags": [
                "exercitation",
                "nisi",
                "adipisicing",
                "sunt",
                "sunt"
            ],
            "category": "accessories"
        },
        {
            "id": 36,
            "guid": "9e401d2e-3614-4f48-8829-8ab7675c4aab",
            "price": "337.00",
            "img": "http://placehold.it/300x200",
            "title": "proident eu",
            "desc": [
                "Sit amet cupidatat occaecat in occaecat voluptate esse.",
                "Enim consectetur cupidatat fugiat proident ex excepteur ad anim non eiusmod enim reprehenderit incididunt adipisicing.",
                "Amet adipisicing consequat labore aliquip nostrud.",
                "Velit anim ex et consequat mollit esse ex ut culpa nulla."
            ],
            "count": 85,
            "tags": [
                "laboris",
                "ex",
                "eiusmod",
                "nisi",
                "labore"
            ],
            "category": "accessories"
        },
        {
            "id": 37,
            "guid": "d1a6fde2-7b4d-4b45-b763-d52d33b5f4df",
            "price": "392.00",
            "img": "http://placehold.it/300x200",
            "title": "enim ex",
            "desc": [
                "Eiusmod et magna consequat culpa dolor non.",
                "Eiusmod dolore elit cupidatat minim laborum laborum pariatur cillum nostrud.",
                "In sunt ea labore dolore anim occaecat id."
            ],
            "count": 78,
            "tags": [
                "adipisicing",
                "occaecat",
                "commodo",
                "ullamco"
            ],
            "category": "balls"
        },
        {
            "id": 38,
            "guid": "c96168a4-3926-494b-afa6-1d2eb05e3e4d",
            "price": "193.00",
            "img": "http://placehold.it/300x200",
            "title": "sint ut",
            "desc": [
                "Laboris consequat cupidatat ad sunt dolor cillum.",
                "Consequat do incididunt ipsum reprehenderit Lorem aliqua nulla commodo et minim ut elit ea non."
            ],
            "count": 131,
            "tags": [
                "cillum"
            ],
            "category": "balls"
        },
        {
            "id": 39,
            "guid": "27653bb1-0cd1-4086-95cb-987686857eb6",
            "price": "263.00",
            "img": "http://placehold.it/300x200",
            "title": "qui excepteur",
            "desc": [
                "Ut ad est et adipisicing commodo amet incididunt cillum ullamco labore amet elit tempor ea.",
                "Sit sit mollit labore aute do irure aliqua do sint do nostrud voluptate quis deserunt.",
                "Est irure ex aute qui nulla nostrud esse voluptate incididunt nisi in laboris ullamco aute."
            ],
            "count": 135,
            "tags": [
                "fugiat",
                "elit",
                "dolore",
                "Lorem"
            ],
            "category": "rubbers"
        },
        {
            "id": 40,
            "guid": "29adb0b7-4ec0-442e-a580-aace54028bd0",
            "price": "210.00",
            "img": "http://placehold.it/300x200",
            "title": "ea adipisicing",
            "desc": [
                "Laborum cillum dolore enim labore pariatur excepteur laboris ullamco anim enim ea esse."
            ],
            "count": 7,
            "tags": [
                "occaecat",
                "laboris"
            ],
            "category": "sets"
        },
        {
            "id": 41,
            "guid": "7cfc2d45-bd31-4ff2-beaf-14ab132c380c",
            "price": "3.00",
            "img": "http://placehold.it/300x200",
            "title": "est id",
            "desc": [
                "Amet proident sint irure enim officia duis excepteur adipisicing officia elit."
            ],
            "count": 237,
            "tags": [
                "non"
            ],
            "category": "rubbers"
        },
        {
            "id": 42,
            "guid": "20f9f1cb-a5d0-4cc2-bf8e-a8ea46a15302",
            "price": "123.00",
            "img": "http://placehold.it/300x200",
            "title": "est ad",
            "desc": [
                "Fugiat reprehenderit fugiat irure aliquip incididunt quis ipsum quis commodo dolor dolor aliqua reprehenderit in.",
                "Voluptate enim non laborum esse voluptate cupidatat tempor tempor officia deserunt voluptate sunt.",
                "Sit ea non id eu mollit mollit deserunt ut nostrud.",
                "Pariatur proident nulla magna ea mollit non non anim amet officia.",
                "Id proident consectetur elit nulla mollit eu adipisicing mollit eiusmod labore nostrud exercitation."
            ],
            "count": 243,
            "tags": [
                "nostrud"
            ],
            "category": "blades"
        },
        {
            "id": 43,
            "guid": "7381eaca-7ede-40ae-83bc-e8ca2e2ff21a",
            "price": "232.00",
            "img": "http://placehold.it/300x200",
            "title": "do ad",
            "desc": [
                "Reprehenderit irure qui excepteur consectetur adipisicing labore esse consectetur excepteur eiusmod dolore minim.",
                "Culpa dolor laborum mollit culpa ad eu sint labore ad."
            ],
            "count": 290,
            "tags": [
                "ullamco",
                "pariatur",
                "fugiat",
                "laborum",
                "est"
            ],
            "category": "rubbers"
        },
        {
            "id": 44,
            "guid": "79878884-68de-4819-b54a-bdd95ebf253f",
            "price": "334.00",
            "img": "http://placehold.it/300x200",
            "title": "deserunt consectetur",
            "desc": [
                "Pariatur nulla exercitation duis reprehenderit non laboris elit ullamco.",
                "Duis elit eu ad qui nulla anim qui ad veniam enim elit."
            ],
            "count": 111,
            "tags": [
                "officia",
                "fugiat",
                "ullamco"
            ],
            "category": "accessories"
        },
        {
            "id": 45,
            "guid": "02d492d0-587c-4b54-a7c9-ab7688e0469e",
            "price": "362.00",
            "img": "http://placehold.it/300x200",
            "title": "incididunt ad",
            "desc": [
                "Consequat adipisicing laborum quis aliquip esse ea aliqua do sint culpa incididunt in nisi consectetur.",
                "Irure dolore aliqua est ipsum laboris quis in do cupidatat Lorem officia tempor.",
                "Et aute occaecat esse consectetur voluptate nostrud veniam in elit occaecat exercitation cillum anim id."
            ],
            "count": 115,
            "tags": [
                "adipisicing"
            ],
            "category": "sets"
        },
        {
            "id": 46,
            "guid": "c677b13d-f889-4870-8ff4-b19333622aad",
            "price": "23.00",
            "img": "http://placehold.it/300x200",
            "title": "sit enim",
            "desc": [
                "Non dolor fugiat consectetur do id elit quis.",
                "Est ut eu cillum quis laboris est ullamco nostrud consequat."
            ],
            "count": 200,
            "tags": [
                "aute",
                "magna",
                "Lorem"
            ],
            "category": "rubbers"
        },
        {
            "id": 47,
            "guid": "ce437829-30da-4c5e-b394-f3531c02db72",
            "price": "277.00",
            "img": "http://placehold.it/300x200",
            "title": "in laborum",
            "desc": [
                "Sit exercitation non nostrud non voluptate voluptate aliquip sunt ipsum culpa dolore."
            ],
            "count": 137,
            "tags": [
                "aliqua",
                "do",
                "id",
                "nostrud"
            ],
            "category": "tables"
        },
        {
            "id": 48,
            "guid": "4ff40e8c-eb48-4c9a-aac6-6e200b2539a4",
            "price": "315.00",
            "img": "http://placehold.it/300x200",
            "title": "sint consequat",
            "desc": [
                "Deserunt in velit dolor minim sint proident nulla deserunt officia in."
            ],
            "count": 275,
            "tags": [
                "fugiat",
                "velit",
                "tempor",
                "sint",
                "laborum"
            ],
            "category": "tables"
        },
        {
            "id": 49,
            "guid": "ccbce554-ad3e-409c-93aa-6f6bb359ca71",
            "price": "325.00",
            "img": "http://placehold.it/300x200",
            "title": "ex dolore",
            "desc": [
                "Sint commodo minim adipisicing laborum occaecat tempor proident elit nisi ea exercitation ut non.",
                "Laboris sint tempor quis ut sunt do enim."
            ],
            "count": 267,
            "tags": [
                "anim",
                "dolor",
                "id"
            ],
            "category": "tables"
        }
    ]
}